<svg width="27" height="27" viewBox="0 0 27 27" fill="none" xmlns="http://www.w3.org/2000/svg">
<path d="M20.3565 7.77639H18.0394C18.001 7.77639 17.966 7.76225 17.9446 7.744C17.9348 7.73564 17.9288 7.72728 17.9251 7.71949C17.9216 7.71218 17.9181 7.70116 17.9181 7.68373V5.29916C17.9876 4.73786 17.4778 4.34062 16.9862 4.34062H7.13844C6.25573 4.34062 5.5219 4.99531 5.5219 5.86769V21.1323C5.5219 22.0047 6.25573 22.6594 7.13844 22.6594H19.7772C20.6599 22.6594 21.3938 22.0047 21.3938 21.1323V8.71447C21.3938 8.17193 20.9081 7.77639 20.3565 7.77639ZM19.7405 9.35804V21.0286H7.17513V5.92227H16.3175V7.68373C16.3175 8.59843 17.0969 9.35804 18.0921 9.35804H19.7405ZM16.8808 12.7938C17.1009 12.7938 17.3102 12.7247 17.4672 12.5783C17.6261 12.4302 17.7075 12.225 17.7075 12.003C17.7075 11.7809 17.6261 11.5758 17.4672 11.4277C17.3102 11.2813 17.1009 11.2122 16.8808 11.2122H10.0348C9.81474 11.2122 9.60552 11.2813 9.44849 11.4277C9.28955 11.5758 9.20821 11.7809 9.20821 12.003C9.20821 12.225 9.28955 12.4302 9.44849 12.5783C9.60552 12.7247 9.81474 12.7938 10.0348 12.7938H16.8808ZM16.8808 15.7388C17.1009 15.7388 17.3102 15.6696 17.4672 15.5232C17.6261 15.3751 17.7075 15.17 17.7075 14.9479C17.7075 14.7259 17.6261 14.5208 17.4672 14.3726C17.3102 14.2263 17.1009 14.1571 16.8808 14.1571H10.0348C9.81474 14.1571 9.60552 14.2263 9.44849 14.3726C9.28955 14.5208 9.20821 14.7259 9.20821 14.9479C9.20821 15.17 9.28955 15.3751 9.44849 15.5232C9.60552 15.6696 9.81474 15.7388 10.0348 15.7388H16.8808ZM16.8808 18.6837C17.1009 18.6837 17.3102 18.6145 17.4672 18.4682C17.6261 18.32 17.7075 18.1149 17.7075 17.8929C17.7075 17.6708 17.6261 17.4657 17.4672 17.3176C17.3102 17.1712 17.1009 17.1021 16.8808 17.1021H10.0348C9.81474 17.1021 9.60552 17.1712 9.44849 17.3176C9.28955 17.4657 9.20821 17.6708 9.20821 17.8929C9.20821 18.1149 9.28955 18.32 9.44849 18.4682C9.60552 18.6145 9.81474 18.6837 10.0348 18.6837H16.8808Z" fill="#3263E2" stroke="#3263E2" stroke-width="0.6"/>
</svg>
