<svg width="27" height="27" viewBox="0 0 27 27" fill="none" xmlns="http://www.w3.org/2000/svg">
<path d="M20.3565 8.02639H18.0394C17.8487 8.02639 17.6681 7.89444 17.6681 7.68373V5.28242C17.7237 4.90211 17.3752 4.59062 16.9862 4.59062H7.13844C6.37694 4.59062 5.7719 5.14966 5.7719 5.86769V21.1323C5.7719 21.8503 6.37694 22.4094 7.13844 22.4094H19.7772C20.5387 22.4094 21.1438 21.8503 21.1438 21.1323V8.71447C21.1438 8.33773 20.7995 8.02639 20.3565 8.02639ZM19.9905 21.0832C19.9905 21.1444 19.969 21.192 19.934 21.2246C19.8988 21.2575 19.8459 21.2786 19.7772 21.2786H7.13844C7.0698 21.2786 7.0169 21.2575 6.98163 21.2246C6.94668 21.192 6.92513 21.1444 6.92513 21.0832V5.86769C6.92513 5.81321 6.95425 5.76492 6.99889 5.72851C7.04425 5.69152 7.09922 5.67227 7.13844 5.67227H16.5675V7.68373C16.5675 8.44971 17.224 9.10804 18.0921 9.10804H19.9905V21.0832ZM16.8808 12.5438C17.0492 12.5438 17.1938 12.4914 17.2967 12.3954C17.4 12.2991 17.4575 12.1627 17.4575 12.003C17.4575 11.8433 17.4 11.7068 17.2967 11.6106C17.1938 11.5146 17.0492 11.4622 16.8808 11.4622H10.0348C9.86649 11.4622 9.72191 11.5146 9.61894 11.6106C9.51565 11.7068 9.45821 11.8433 9.45821 12.003C9.45821 12.1627 9.51565 12.2991 9.61894 12.3954C9.72191 12.4914 9.86649 12.5438 10.0348 12.5438H16.8808ZM16.8808 15.4888C17.0492 15.4888 17.1938 15.4363 17.2967 15.3404C17.4 15.2441 17.4575 15.1076 17.4575 14.9479C17.4575 14.7882 17.4 14.6518 17.2967 14.5555C17.1938 14.4595 17.0492 14.4071 16.8808 14.4071H10.0348C9.86649 14.4071 9.72191 14.4595 9.61894 14.5555C9.51565 14.6518 9.45821 14.7882 9.45821 14.9479C9.45821 15.1076 9.51565 15.2441 9.61894 15.3404C9.72191 15.4363 9.86649 15.4888 10.0348 15.4888H16.8808ZM16.8808 18.4337C17.0492 18.4337 17.1938 18.3813 17.2967 18.2853C17.4 18.189 17.4575 18.0526 17.4575 17.8929C17.4575 17.7332 17.4 17.5967 17.2967 17.5005C17.1938 17.4045 17.0492 17.3521 16.8808 17.3521H10.0348C9.86649 17.3521 9.72191 17.4045 9.61894 17.5005C9.51565 17.5967 9.45821 17.7332 9.45821 17.8929C9.45821 18.0526 9.51565 18.189 9.61894 18.2853C9.72191 18.3813 9.86649 18.4337 10.0348 18.4337H16.8808Z" fill="#24242D" stroke="#24242D" stroke-width="0.1"/>
</svg>
