<svg width="32" height="32" viewBox="0 0 32 32" fill="none" xmlns="http://www.w3.org/2000/svg">
<path d="M19.877 21.2127C20.1544 21.3034 20.4583 21.1487 20.549 20.866C20.5864 20.7434 21.509 17.7727 20.1597 15.234C19.0184 13.0953 17.1837 11.9754 15.1303 12.1727C12.597 12.4074 10.277 14.562 9.35967 17.522C7.73835 22.7434 10.613 27.5434 10.7357 27.746C10.837 27.9114 11.013 28.002 11.189 28.002C11.285 28.002 11.381 27.9754 11.4663 27.922C11.7224 27.7727 11.797 27.442 11.6477 27.1913C11.6157 27.1434 8.89568 22.6047 10.3784 17.842C11.1677 15.282 13.1197 13.4313 15.2263 13.234C16.8637 13.0794 18.277 13.97 19.221 15.7353C20.3517 17.8687 19.5357 20.5193 19.5303 20.546C19.4397 20.8233 19.5943 21.122 19.877 21.2127Z" fill="#3263E2"/>
<path d="M15.1304 18.2741C14.8424 18.2101 14.5597 18.3914 14.4957 18.6794C14.4584 18.8341 13.6531 22.5407 15.5304 24.9781C16.5117 26.2474 18.0157 26.9247 20.005 26.9941H20.0264C20.3144 26.9941 20.549 26.7647 20.5597 26.4767C20.5704 26.1834 20.341 25.9381 20.0424 25.9274C18.3891 25.8687 17.157 25.3301 16.3784 24.3274C14.805 22.2901 15.525 18.9461 15.5357 18.9141C15.5997 18.6261 15.4184 18.3381 15.1304 18.2741Z" fill="#3263E2"/>
<path d="M6.91707 22.9462C6.97572 23.2342 7.26371 23.4155 7.55173 23.3568C7.83972 23.2928 8.02107 23.0102 7.95704 22.7222C7.70105 21.5488 7.61573 20.3275 7.70639 19.0848C8.09037 13.6608 11.6851 9.50082 15.7171 9.77283C19.7437 10.0608 22.7091 14.7008 22.3197 20.1675L22.325 20.7222C22.3411 21.8795 21.4077 22.8395 20.2504 22.8608H20.2131C19.6531 22.8608 19.1304 22.6475 18.7304 22.2528C18.325 21.8528 18.0957 21.3195 18.0957 20.7435V18.3702C18.0957 16.7861 16.8104 15.4955 15.2264 15.4955C14.0477 15.4955 13.0024 16.1942 12.565 17.2821C11.6531 19.5435 10.165 25.2448 16.0851 29.2342C16.1757 29.2982 16.2771 29.3248 16.3784 29.3248C16.5491 29.3248 16.7197 29.2448 16.8211 29.0902C16.9864 28.8448 16.9224 28.5141 16.6771 28.3488C11.5997 24.9248 12.5437 20.1942 13.557 17.6768C13.829 16.9995 14.4851 16.5622 15.2264 16.5622C16.2237 16.5622 17.029 17.3728 17.029 18.3702V20.7435C17.029 21.6075 17.3704 22.4128 17.9837 23.0155C18.597 23.6181 19.4077 23.9328 20.2664 23.9275C22.0104 23.8955 23.4131 22.4555 23.3917 20.7115L23.3864 20.1995C23.8131 14.1942 20.4051 9.03682 15.7917 8.70616C11.1891 8.37016 7.07172 12.9995 6.64506 19.0048C6.54906 20.3541 6.63972 21.6768 6.91707 22.9462Z" fill="#3263E2"/>
<path d="M7.50902 10.2205C7.31169 10.4392 7.32767 10.7752 7.55169 10.9726C7.77035 11.1699 8.10635 11.1539 8.30368 10.9299C8.35169 10.8766 13.333 5.42054 18.341 7.18587C23.4663 8.99922 24.2983 14.0286 24.3303 14.2419C24.3677 14.5086 24.597 14.6952 24.8583 14.6952C24.885 14.6952 24.9117 14.6952 24.9383 14.6899C25.2263 14.6472 25.429 14.3752 25.3864 14.0819C25.349 13.8472 24.437 8.2099 18.6983 6.1832C13.0184 4.17256 7.72767 9.96989 7.50902 10.2205Z" fill="#3263E2"/>
<path d="M12.2878 4.78058C12.5651 4.63127 19.1251 1.28725 23.4505 7.19126C23.5571 7.33527 23.7171 7.40995 23.8825 7.40995C23.9892 7.40995 24.1011 7.37795 24.1971 7.30861C24.4318 7.1326 24.4851 6.80194 24.3091 6.56193C19.4505 -0.0780792 11.8665 3.79393 11.7918 3.83127C11.5305 3.96994 11.4291 4.29526 11.5678 4.55659C11.7011 4.81261 12.0264 4.91392 12.2878 4.78058Z" fill="#3263E2"/>
</svg>
